*** LADA FACEBOOK ***

# nodes: 388
# edges: 3598

Clustering coeffcient: 0.534
Avg. Path length: 2.781




*** RANDOM GRAPH ***

# nodes: 388
# edges: 3590

Clustering coeffcient: 0.048
Avg. Path length: 2.347



*** GNUTELLA GRAPH ***

# nodes: 795
# edges: 852
wiring probability: 0.0026961

Clustering coeffcient: 0.029
Avg. Path length: 4.82


*** RANDOM GRAPH ***

# nodes: 795
# edges: 849

Clustering coeffcient: 0.001
Avg. Path length: 8.423



